module github.com/banzaicloud/cloudinfo

go 1.16

require (
	contrib.go.opencensus.io/exporter/jaeger v0.2.1
	contrib.go.opencensus.io/exporter/prometheus v0.3.0
	emperror.dev/emperror v0.33.0
	emperror.dev/errors v0.8.0
	emperror.dev/handler/logur v0.5.0
	github.com/99designs/gqlgen v0.13.0
	github.com/Azure/azure-sdk-for-go v55.1.0+incompatible
	github.com/Azure/go-autorest/autorest v0.11.19
	github.com/Azure/go-autorest/autorest/azure/auth v0.5.7
	github.com/Azure/go-autorest/autorest/to v0.4.0 // indirect
	github.com/Azure/go-autorest/autorest/validation v0.3.1 // indirect
	github.com/aliyun/alibaba-cloud-sdk-go v1.61.1124
	github.com/asaskevich/EventBus v0.0.0-20200907212545-49d423059eef
	github.com/aws/aws-sdk-go v1.38.58
	github.com/banzaicloud/go-gin-prometheus v0.1.0
	github.com/digitalocean/godo v1.62.0
	github.com/gin-contrib/cors v1.3.1
	github.com/gin-contrib/static v0.0.1
	github.com/gin-gonic/gin v1.7.2
	github.com/go-kit/kit v0.10.0
	github.com/go-playground/validator/v10 v10.6.1
	github.com/gocql/gocql v0.0.0-20210515062232-b7ef815b4556
	github.com/gofrs/uuid v4.0.0+incompatible
	github.com/gomodule/redigo v2.0.0+incompatible
	github.com/mitchellh/mapstructure v1.4.1
	github.com/moogar0880/problems v0.1.1
	github.com/oracle/oci-go-sdk v24.3.0+incompatible
	github.com/patrickmn/go-cache v2.1.0+incompatible
	github.com/prometheus/client_golang v1.10.0
	github.com/prometheus/common v0.26.0
	github.com/sagikazarmark/viperx v0.8.0
	github.com/shopspring/decimal v1.2.0 // indirect
	github.com/sirupsen/logrus v1.8.1
	github.com/spf13/pflag v1.0.5
	github.com/spf13/viper v1.7.1
	github.com/stretchr/testify v1.7.0
	github.com/vektah/gqlparser/v2 v2.2.0
	go.opencensus.io v0.23.0
	golang.org/x/oauth2 v0.0.0-20210514164344-f6687ab2804c
	google.golang.org/api v0.48.0
	logur.dev/adapter/logrus v0.5.0
	logur.dev/logur v0.17.0
)
